{"count":1123,"next":"https://pokeapi.co/api/v2/pokemon?offset=20&limit=20","previous":null,"results":
[{"name":"Iphone 14 pro max", "price":"600$", "url":"https://softech.kg/image/cache/18f4fe11bd43e505c1da19a9054f5792.jpg"},
{"name":"Samsung s22", "price":"550$", "url":"https://gudini.kg/image/cache/catalog/Samsung/S22%20Ultra/w-green-800x800.jpg"},
{"name":"Huawei p21", "price":"200$", "url":"https://images.frandroid.com/wp-content/uploads/2020/10/huawei-p-smart-2021-frandroid-2020.png"},
{"name":"Poco X4 pro", "price":"250$", "url":"https://login.kg/image/cache/catalog/new/Phones/Xiaomi/Poco%20X4%20Pro/1-500x500.jpg"},
{"name":"Iphone 12 pro", "price":"600$", "url":"https://www.myphone.kg/files/media/10/10645.png"},
{"name":"Redmi note 12", "price":"300$", "url":"https://softech.kg/image/cache/35ca850e28012b9c153a0e7c0598a623.jpg"},
{"name":"Vivo X60 Pro", "price":"450$", "url":"https://login.kg/image/cache/catalog/new/Phones/Vivo/X60%20Pro/vivo-x60-pro-500x500.jpg"},
{"name":"Vivo v23", "price":"400$", "url":"https://object.pscloud.io/cms/cms/Photo/img_0_77_3465_1_6.png"},
{"name":"Samsung a21", "price":"170$", "url":"https://svetofor.info/images/detailed/212/smartfon-samsung-galaxy_a21_2020-64-gb-ram-3-gb-dual-sim-black-1.jpg"},
{"name":"Tesla model p", "price":"700$", "url":"https://uncrate.com/p/2019/06/tesla-model-p-concept-1.jpg"},
{"name":"xiaomi mi 11 ultra", "price":"500$", "url":"https://login.kg/image/catalog/new/Phones/Xiaomi/Mi%2011%20Ultra/1.jpg"},
 {"name":"infinix note 10 pro","url":"https://c.dns-shop.ru/thumb/st4/fit/300/300/d3cde08971a2276018bbe2450f6cdb92/fc29c2ece5f5ca2001ba334ff04507efaded3570fac4887fad790b03bd68306d.jpg"}]}